{
  "images" : [
    {
      "idiom" : "universal",
      "filename" : "map-pin-silhouette.png",
      "scale" : "1x"
    },
    {
      "idiom" : "universal",
      "filename" : "map-pin-silhouettebju.png",
      "scale" : "2x"
    },
    {
      "idiom" : "universal",
      "filename" : "map-pin-silhouettetr.png",
      "scale" : "3x"
    }
  ],
  "info" : {
    "version" : 1,
    "author" : "xcode"
  }
}